{
  "name": "client",
  "plural": "people",
  "base": "PersistedModel",
  "idInjection": true,
  "properties": {
    "name": {
      "type": "string",
      "required": true
    },
    "address": {
      "type": "string",
      "required": false
    }
  },
  "validations": [],
  "relations": {},
  "acls": [],
  "methods": []
}
